# Time-averaged data for fix fout1
# TimeStep v_energy v_temperature
100 -927.43 1259.33
200 -915.997 1506.82
300 -899.764 1770.82
400 -881.584 2092.41
500 -864.159 2454.17
600 -852.392 2557.4
700 -847.192 2641.56
800 -848.543 2630.58
900 -854.98 2430.95
1000 -858.795 2427.08
1100 -858.545 2489.86
1200 -856.856 2461.33
1300 -853.514 2543.02
1400 -852.086 2596.33
1500 -855.767 2457.81
1600 -858.82 2460.34
1700 -858.918 2462.7
1800 -856.182 2431.77
1900 -850.093 2594.33
2000 -846.724 2547.6
2100 -842.846 2440.15
2200 -832.954 2554.37
2300 -830.89 2636.28
2400 -834.622 2371.07
2500 -833.583 2450.52
2600 -823.991 2487.77
2700 -818.422 2492.74
2800 -815.118 2503.84
2900 -811.959 2510.31
3000 -805.546 2516.78
3100 -797.508 2606.5
3200 -796.595 2414.3
3300 -793.825 2499.71
3400 -786.422 2612.25
3500 -781.65 2668.61
3600 -785.277 2559.37
3700 -788.519 2516.49
3800 -789.907 2491.22
3900 -789.591 2410.71
4000 -786.044 2487.68
4100 -784.374 2629.21
4200 -791.733 2413.93
4300 -799.288 2263.96
4400 -793.697 2352.4
4500 -785.821 2467.39
4600 -781.082 2617.88
4700 -782.288 2501.87
4800 -787.316 2482.27
4900 -795.167 2307.07
5000 -795.037 2478.63
5100 -792.515 2429.57
5200 -789.434 2498.24
5300 -788.905 2536
5400 -789.427 2437.83
5500 -787.067 2473.9
5600 -779.729 2674.53
5700 -777.58 2646.36
5800 -786.113 2452.97
5900 -791.124 2457.73
6000 -790.751 2512.27
6100 -791.612 2543.83
6200 -799.013 2393.83
6300 -802.893 2289.68
6400 -797.74 2449.46
6500 -793.779 2407.78
6600 -788.497 2301.43
6700 -782.926 2675.66
6800 -786.595 2500.23
6900 -789.312 2353.05
7000 -784.797 2572.41
7100 -776.781 2700.66
7200 -774.799 2842.57
7300 -785.255 2406.5
7400 -786.878 2405.47
7500 -782.681 2569.87
7600 -780.994 2655.76
7700 -788.482 2453.21
7800 -792.466 2373.06
7900 -791.124 2502.91
8000 -790.09 2481.75
8100 -786.649 2501.84
8200 -776.869 2730.89
8300 -776.188 2731.45
8400 -783.377 2645.81
8500 -788.402 2551.92
8600 -793.788 2483.95
8700 -796.618 2351.07
8800 -791.374 2548.01
8900 -783.431 2628.98
9000 -782.377 2552.84
9100 -784.657 2635.42
9200 -788.252 2478.03
9300 -788.742 2440.59
9400 -784.541 2508.9
9500 -776.603 2689.1
9600 -775.001 2641.41
9700 -785.048 2470.8
9800 -789.615 2481.63
9900 -788.86 2427.52
10000 -785.414 2588.56
10100 -785.26 2549.62
10200 -790.226 2490.15
10300 -799.109 2450.41
10400 -801.055 2330.37
10500 -796.188 2369.82
10600 -790.774 2471.69
10700 -788.12 2523.51
10800 -786.963 2543.78
10900 -787.483 2547.1
11000 -793.424 2416.83
